<?xml version="1.0" encoding="utf-8"?>
<!-- Generator: Adobe Illustrator 23.0.2, SVG Export Plug-In . SVG Version: 6.00 Build 0)  -->
<svg version="1.1" id="Слой_1" xmlns="http://www.w3.org/2000/svg" xmlns:xlink="http://www.w3.org/1999/xlink" x="0px" y="0px"
	 viewBox="0 0 120 120" style="enable-background:new 0 0 120 120;" xml:space="preserve">
<style type="text/css">
	.st0{fill:#FFD200;}
</style>
<g id="surface1500879">
	<path class="st0" d="M60,5.1C29.5,5.1,4.8,29.8,4.8,60.3c0,27.7,20.4,50.5,47,54.5V74.9H38.1V60.4h13.7v-9.7c0-16,7.8-23,21.1-23
		c6.4,0,9.7,0.5,11.3,0.7v12.7h-9.1c-5.6,0-7.6,5.3-7.6,11.4v7.9H84l-2.2,14.5H67.5v40c26.9-3.7,47.7-26.7,47.7-54.6
		C115.2,29.8,90.5,5.1,60,5.1z"/>
</g>
</svg>
