<?xml version="1.0" encoding="utf-8"?>
<!-- Generator: Adobe Illustrator 23.0.2, SVG Export Plug-In . SVG Version: 6.00 Build 0)  -->
<svg version="1.1" id="Слой_1" xmlns="http://www.w3.org/2000/svg" xmlns:xlink="http://www.w3.org/1999/xlink" x="0px" y="0px"
	 viewBox="0 0 120 120" style="enable-background:new 0 0 120 120;" xml:space="preserve">
<style type="text/css">
	.st0{fill:#FFD200;}
</style>
<g>
	<path class="st0" d="M62.4,4.2c1.8,0.2,3.6,0.4,5.4,0.6c6.4,0.9,12.5,2.9,18.2,6c8.7,4.7,15.6,11.2,20.9,19.6
		c2.4,3.8,4.3,7.8,5.7,12.2c-2.9,0-5.8,0-8.6,0c-0.2,0-0.5-0.5-0.7-0.8c-1.2-2.3-2.4-4.5-3.5-6.8C99.3,34.2,98.8,34,98,34
		c-2.5,0.1-5,0-7.7,0c0.7,2.8,1.3,5.6,2,8.4c-3,0-5.8,0-8.7,0c-0.7-2.4-1.4-4.9-2.1-7.3c-0.2-0.8-0.6-1.1-1.5-1.1
		c-13.5,0-27,0-40.4,0c-0.9,0-1.3,0.3-1.5,1.1c-0.6,2.4-1.4,4.9-2.1,7.4c-2.8,0-5.7,0-8.7,0c0.7-2.8,1.3-5.6,2-8.4
		c-2.3,0-4.6,0.2-6.9-0.1c-1.7-0.2-2.5,0.5-3.1,1.8c-1,2-2,4-3,6c-0.2,0.3-0.5,0.7-0.8,0.7c-2.8,0.1-5.6,0-8.7,0
		c1.3-2.9,2.3-5.7,3.7-8.3C15.8,24,23.7,16.1,33.9,10.6c6.1-3.2,12.6-5.3,19.4-6c1.3-0.1,2.6-0.3,3.9-0.4
		C58.9,4.2,60.6,4.2,62.4,4.2z M76.9,25.4c0-0.2,0-0.2,0-0.3c-2.5-4.1-5.4-7.9-9.7-10.3c-4.3-2.5-8.7-2.9-13.3-0.8
		c-3.2,1.5-5.8,3.8-8,6.5c-1.2,1.5-2.3,3.1-3.5,4.9C54.1,25.4,65.5,25.4,76.9,25.4z M83.7,19.2c-0.1,0.1-0.1,0.2-0.2,0.2
		c1,1.9,2,3.7,3.1,5.6c0.1,0.2,0.4,0.5,0.6,0.5c1.5,0,2.9,0,4.4,0c0.1-0.1,0.1-0.3,0.2-0.4C89.1,23.1,86.4,21.2,83.7,19.2z
		 M27.8,25.1c0.1,0.1,0.1,0.3,0.2,0.4c1.4,0,2.8,0,4.2,0c0.2,0,0.5-0.1,0.6-0.3c1.1-1.9,2.1-3.9,3.2-5.8c-0.1-0.1-0.1-0.2-0.2-0.2
		C33.2,21.2,30.5,23.1,27.8,25.1z"/>
	<path class="st0" d="M83.6,76.8c2.9,0,5.7,0,8.7,0c-0.7,2.8-1.4,5.6-2,8.5c2.4,0,4.8-0.2,7.1,0.1c1.5,0.1,2.1-0.4,2.7-1.6
		c1-2.1,2-4.1,3.1-6.2c0.2-0.3,0.5-0.8,0.8-0.8c2.8-0.1,5.6,0,8.4,0c-4.7,16.7-21.8,35.9-47.7,38.2c-27.8,2.4-50.5-15.6-57.6-38.2
		c1.6,0,3.2,0,4.7,0c1.4,0,3-0.4,4,0.2c0.9,0.6,1.2,2.3,1.8,3.4c0.8,1.5,1.6,3,2.5,4.4c0.1,0.2,0.5,0.5,0.7,0.5
		c2.7,0,5.5-0.1,8.2-0.1c0,0,0.1,0,0.2-0.1c-0.7-2.7-1.3-5.5-2-8.3c3,0,5.9,0,8.7,0c0.7,2.5,1.4,4.9,2.1,7.4
		c0.2,0.8,0.5,1.1,1.4,1.1c13.5,0,27,0,40.5,0c0.8,0,1.2-0.3,1.4-1.1C82.1,81.8,82.8,79.4,83.6,76.8z M42.5,93.9
		c2.7,4.4,5.7,8.2,10,10.7c4.3,2.4,8.7,2.8,13.3,0.6c5-2.4,8.3-6.4,11.1-11.1c0,0,0-0.1-0.1-0.2C65.4,93.9,54.1,93.9,42.5,93.9z
		 M83.5,100c0.1,0.1,0.1,0.2,0.2,0.3c2.7-2,5.3-4,8-6c-0.1-0.1-0.1-0.3-0.2-0.4c-1.5,0-2.9,0-4.4,0c-0.2,0-0.4,0.2-0.5,0.4
		C85.6,96.2,84.6,98.1,83.5,100z M35.8,100.2c0.1-0.1,0.1-0.2,0.2-0.2c-1-1.9-2-3.8-3.1-5.7c-0.1-0.2-0.3-0.4-0.4-0.4
		c-1.5,0-3,0-4.5,0c0,0.1-0.1,0.3-0.1,0.4C30.5,96.3,33.2,98.2,35.8,100.2z"/>
	<path class="st0" d="M14.7,61.5c1.4-3.3,2.8-6.4,4.1-9.4c0.4-1,1-1.4,2-1.4c4.2,0.1,3.4-0.4,4.9,3.2c1,2.4,2.1,4.8,3.2,7.5
		c0.2-0.5,0.4-0.8,0.5-1.2c1.1-2.8,2.2-5.5,3.2-8.3c0.3-0.8,0.8-1.2,1.7-1.2c1.1,0,2.2,0,3.4,0c1.2,0.1,1.6,0.7,1.1,1.8
		c-2.2,5.1-4.5,10.2-6.8,15.4c-0.3,0.7-0.8,1-1.6,1c-0.9,0-1.9,0-2.8,0c-0.9,0-1.5-0.4-1.8-1.2c-1.2-2.8-2.4-5.5-3.6-8.2
		c-0.1-0.3-0.3-0.6-0.5-1c-1.4,3-2.8,5.9-4,8.8c-0.5,1.2-1.3,1.6-2.6,1.6c-4.2-0.1-3.2,0.5-4.8-3.2c-1.8-4.3-3.6-8.6-5.3-12.9
		c-0.6-1.5-0.3-2,1.4-2.1c1,0,2,0,3,0c0.9,0,1.5,0.4,1.8,1.3C12.4,55.1,13.5,58.2,14.7,61.5z"/>
	<path class="st0" d="M52.8,61.5c0.5-1.1,0.9-2,1.3-2.9c1-2.2,1.9-4.4,2.9-6.6c0.3-0.8,0.8-1.2,1.7-1.2c4.6,0,3.6-0.5,5.2,3.3
		c1.1,2.4,2,4.8,3.1,7.4c0.7-1.7,1.2-3.2,1.8-4.7c0.6-1.6,1.2-3.3,2-4.9c0.2-0.5,0.8-1,1.3-1c1.2-0.1,2.5-0.1,3.8,0
		c1.1,0.1,1.5,0.7,1,1.7c-2.3,5.2-4.5,10.3-6.8,15.4c-0.3,0.7-0.8,1-1.5,1c-1,0-2,0-2.9,0c-0.9,0-1.5-0.4-1.8-1.2
		c-1.3-3.1-2.6-6.1-4-9.3c-0.2,0.5-0.4,0.9-0.6,1.3c-1.2,2.7-2.5,5.4-3.7,8.2c-0.3,0.8-0.9,1.1-1.7,1.1c-0.9,0-1.9,0-2.8,0
		c-0.9,0-1.4-0.3-1.7-1.1c-2.1-5.1-4.2-10.1-6.2-15.2c-0.5-1.2-0.1-1.8,1.2-1.8c1.2,0,2.3,0,3.5,0c0.9,0,1.4,0.4,1.6,1.3
		c0.9,2.8,2,5.6,3,8.4C52.5,60.6,52.6,61,52.8,61.5z"/>
	<path class="st0" d="M90.9,61.5c1.3-3,2.6-5.8,3.7-8.7c0.6-1.7,1.5-2.2,3.3-2.2c3.1,0.1,2.6,0,3.7,2.5c1.1,2.7,2.3,5.4,3.5,8.3
		c0.8-2.1,1.6-4.1,2.3-6c0.5-1.2,1-2.4,1.4-3.6c0.3-0.7,0.7-1.1,1.4-1.1c1.2,0,2.5,0,3.7,0c1.1,0.1,1.5,0.7,1.1,1.7
		c-2.3,5.2-4.5,10.3-6.8,15.5c-0.3,0.7-0.8,1-1.6,1c-0.9,0-1.9,0-2.8,0c-0.9,0-1.5-0.3-1.8-1.2c-1.3-3-2.6-6-4-9.2
		c-0.2,0.4-0.3,0.6-0.5,0.9c-1.3,2.8-2.5,5.5-3.8,8.3c-0.4,0.9-0.9,1.3-1.9,1.3c-4.7-0.1-3.6,0.6-5.4-3.6c-1.7-4.1-3.4-8.3-5.1-12.4
		c-0.7-1.7-0.4-2.2,1.4-2.2c0.9,0,1.9,0,2.8,0c1,0,1.6,0.4,2,1.4C88.6,55.2,89.7,58.3,90.9,61.5z"/>
</g>
</svg>
